{
  "main.css": "static/css/main.b8e4ea1d.css",
  "main.css.map": "static/css/main.b8e4ea1d.css.map",
  "main.js": "static/js/main.6e6a2691.js",
  "main.js.map": "static/js/main.6e6a2691.js.map",
  "static/media/logo.svg": "static/media/logo.5d5d9eef.svg"
}